{
    "name": "root",
    "gauges": {
        "RocketAgent.Policy.Entropy.mean": {
            "value": 2.2124454975128174,
            "min": 2.2124454975128174,
            "max": 2.574695110321045,
            "count": 10
        },
        "RocketAgent.Environment.EpisodeLength.mean": {
            "value": 113.57906976744187,
            "min": 77.82096774193549,
            "max": 121.47277227722772,
            "count": 10
        },
        "RocketAgent.Policy.ExtrinsicValueEstimate.mean": {
            "value": -0.028421197086572647,
            "min": -0.028421197086572647,
            "max": 1.2118088006973267,
            "count": 10
        },
        "RocketAgent.Environment.CumulativeReward.mean": {
            "value": 0.0,
            "min": 0.0,
            "max": 0.0,
            "count": 10
        },
        "RocketAgent.Policy.ExtrinsicReward.mean": {
            "value": 0.0,
            "min": 0.0,
            "max": 0.0,
            "count": 10
        },
        "RocketAgent.Losses.ValueLoss.mean": {
            "value": 0.034486543387174606,
            "min": 0.022466376423835754,
            "max": 0.6914405226707458,
            "count": 10
        },
        "RocketAgent.Losses.PolicyLoss.mean": {
            "value": 0.022851238027215004,
            "min": 0.02175193652510643,
            "max": 0.028104344382882118,
            "count": 10
        },
        "RocketAgent.Policy.LearningRate.mean": {
            "value": 1.5524496120633557e-05,
            "min": 1.5524496120633557e-05,
            "max": 0.00028455827850848436,
            "count": 10
        },
        "RocketAgent.Policy.Epsilon.mean": {
            "value": 0.10517480224370956,
            "min": 0.10517480224370956,
            "max": 0.19485275447368622,
            "count": 10
        },
        "RocketAgent.Policy.Beta.mean": {
            "value": 0.0002682225313037634,
            "min": 0.0002682225313037634,
            "max": 0.00474315183237195,
            "count": 10
        },
        "RocketAgent.IsTraining.mean": {
            "value": 1.0,
            "min": 1.0,
            "max": 1.0,
            "count": 10
        }
    },
    "metadata": {
        "timer_format_version": "0.1.0",
        "start_time_seconds": "1606332750",
        "python_version": "3.7.9 (tags/v3.7.9:13c94747c7, Aug 17 2020, 18:58:18) [MSC v.1900 64 bit (AMD64)]",
        "command_line_arguments": "C:\\Users\\JORT\\AppData\\Local\\Programs\\Python\\Python37\\Scripts\\mlagents-learn config/rocketagent_config.yaml --run-id=RocketAgent46",
        "mlagents_version": "0.21.0",
        "mlagents_envs_version": "0.21.0",
        "communication_protocol_version": "1.2.0",
        "tensorflow_version": "2.3.1",
        "numpy_version": "1.19.2",
        "end_time_seconds": "1606332884"
    },
    "total": 134.79513550000001,
    "count": 1,
    "self": 0.19030779999999936,
    "children": {
        "run_training.setup": {
            "total": 0.006809999999999761,
            "count": 1,
            "self": 0.006809999999999761
        },
        "TrainerController.start_learning": {
            "total": 134.5980177,
            "count": 1,
            "self": 0.228872100000018,
            "children": {
                "TrainerController._reset_env": {
                    "total": 6.5885114,
                    "count": 1,
                    "self": 6.5885114
                },
                "TrainerController.advance": {
                    "total": 127.3959915,
                    "count": 7853,
                    "self": 0.100988499999346,
                    "children": {
                        "env_step": {
                            "total": 127.29500300000065,
                            "count": 7853,
                            "self": 113.26391360000098,
                            "children": {
                                "SubprocessEnvManager._take_step": {
                                    "total": 13.933796999999336,
                                    "count": 7853,
                                    "self": 0.4137594999989176,
                                    "children": {
                                        "TFPolicy.evaluate": {
                                            "total": 13.520037500000418,
                                            "count": 7853,
                                            "self": 13.520037500000418
                                        }
                                    }
                                },
                                "workers": {
                                    "total": 0.0972924000003399,
                                    "count": 7853,
                                    "self": 0.0,
                                    "children": {
                                        "worker_root": {
                                            "total": 128.82891080000005,
                                            "count": 7853,
                                            "is_parallel": true,
                                            "self": 58.46210699999929,
                                            "children": {
                                                "steps_from_proto": {
                                                    "total": 0.031673499999999244,
                                                    "count": 1,
                                                    "is_parallel": true,
                                                    "self": 0.0315190000000003,
                                                    "children": {
                                                        "_process_vector_observation": {
                                                            "total": 0.00015449999999894715,
                                                            "count": 2,
                                                            "is_parallel": true,
                                                            "self": 0.00015449999999894715
                                                        }
                                                    }
                                                },
                                                "UnityEnvironment.step": {
                                                    "total": 70.33513030000076,
                                                    "count": 7853,
                                                    "is_parallel": true,
                                                    "self": 1.8555249000009866,
                                                    "children": {
                                                        "UnityEnvironment._generate_step_input": {
                                                            "total": 3.233373700000235,
                                                            "count": 7853,
                                                            "is_parallel": true,
                                                            "self": 3.233373700000235
                                                        },
                                                        "communicator.exchange": {
                                                            "total": 58.48149099999944,
                                                            "count": 7853,
                                                            "is_parallel": true,
                                                            "self": 58.48149099999944
                                                        },
                                                        "steps_from_proto": {
                                                            "total": 6.764740700000092,
                                                            "count": 7853,
                                                            "is_parallel": true,
                                                            "self": 1.838837099999897,
                                                            "children": {
                                                                "_process_vector_observation": {
                                                                    "total": 4.925903600000195,
                                                                    "count": 15706,
                                                                    "is_parallel": true,
                                                                    "self": 4.925903600000195
                                                                }
                                                            }
                                                        }
                                                    }
                                                }
                                            }
                                        }
                                    }
                                }
                            }
                        }
                    }
                },
                "trainer_threads": {
                    "total": 2.1900000007235576e-05,
                    "count": 1,
                    "self": 2.1900000007235576e-05,
                    "children": {
                        "thread_root": {
                            "total": 0.0,
                            "count": 0,
                            "is_parallel": true,
                            "self": 0.0,
                            "children": {
                                "trainer_advance": {
                                    "total": 127.31290650000085,
                                    "count": 28829,
                                    "is_parallel": true,
                                    "self": 1.121052600002102,
                                    "children": {
                                        "process_trajectory": {
                                            "total": 85.30274529999875,
                                            "count": 28829,
                                            "is_parallel": true,
                                            "self": 84.85402709999875,
                                            "children": {
                                                "RLTrainer._checkpoint": {
                                                    "total": 0.44871820000000184,
                                                    "count": 1,
                                                    "is_parallel": true,
                                                    "self": 0.44871820000000184
                                                }
                                            }
                                        },
                                        "_update_policy": {
                                            "total": 40.8891086,
                                            "count": 48,
                                            "is_parallel": true,
                                            "self": 29.49196630000025,
                                            "children": {
                                                "PPOOptimizer.update": {
                                                    "total": 11.397142299999748,
                                                    "count": 1440,
                                                    "is_parallel": true,
                                                    "self": 11.397142299999748
                                                }
                                            }
                                        }
                                    }
                                }
                            }
                        }
                    }
                },
                "TrainerController._save_models": {
                    "total": 0.3846207999999933,
                    "count": 1,
                    "self": 0.0061026999999853615,
                    "children": {
                        "RLTrainer._checkpoint": {
                            "total": 0.37851810000000796,
                            "count": 1,
                            "self": 0.37851810000000796
                        }
                    }
                }
            }
        }
    }
}