{
    "RocketAgent": {
        "checkpoints": [
            {
                "steps": 499969,
                "file_path": "results\\RocketAgent46\\RocketAgent\\RocketAgent-499969.nn",
                "reward": 0.0,
                "creation_time": 1606332884.3115716
            },
            {
                "steps": 500748,
                "file_path": "results\\RocketAgent46\\RocketAgent\\RocketAgent-500748.nn",
                "reward": 0.0,
                "creation_time": 1606332884.741572
            }
        ],
        "final_checkpoint": {
            "steps": 500748,
            "file_path": "results\\RocketAgent46\\RocketAgent.nn",
            "reward": 0.0,
            "creation_time": 1606332884.741572
        }
    },
    "metadata": {
        "stats_format_version": "0.1.0",
        "mlagents_version": "0.21.0",
        "tensorflow_version": "2.3.1"
    }
}